[
    {
        "key":1,
        "name": "Boisson",
        "sectionList":
        [
            {
                "accCode":70760001,
                "accName": "BOISSONS NON ALCOLISEES",
                "refPrefix" : "BOI",
                "subCatList" :
                [
                    {
                        "key": 69,
                        "name": "Boisson végétale"
                    },
                    {
                        "key": 71,
                        "name": "Jus de fruits conditionnés"
                    },
                    {
                        "key": 73,
                        "name": "Kombucha"
                    },
                    {
                        "key": 74,
                        "name": "Mélange de jus de fruits conditionné"
                    },
                    {
                        "key": 75,
                        "name": "Sirops conditionnés"
                    },
                    {
                        "key": 77,
                        "name": "Sodas et softs"
                    }
                ]
            },
            {
                "accCode":70760002,
                "accName": "BOISSONS ALCOLISEES",
                "refPrefix" : "ALC",
                "subCatList" :
                [
                    {
                        "key": 66,
                        "name": "Apéritifs alcoolisés"
                    },
                    {
                        "key": 67,
                        "name": "Bières artisanales"
                    },
                    {
                        "key": 68,
                        "name": "Bières classiques"
                    },
                    {
                        "key": 70,
                        "name": "Cidre"
                    },
                    {
                        "key": 78,
                        "name": "Vin blanc bouteille"
                    },
                    {
                        "key": 80,
                        "name": "Vin rosé bouteille"
                    },
                    {
                        "key": 82,
                        "name": "Vin rouge bouteille"
                    }
                ]
            }
        ]
    },
    {
        "key": 2,
        "name": "Droguerie & Hygiène",
        "sectionList":
        [
            {
                "accCode": 70780001,
                "accName" : "PRODUITS D'HYGIENE",
                "refPrefix": "HYG",
                "subCatList":
                [
                    {
                        "key": 88,
                        "name": "Cosmétiques"
                    },
                    {
                        "key": 94,
                        "name": "Hygiène bébé"
                    },
                    {
                        "key": 95,
                        "name": "Outils hygiène"
                    },
                    {
                        "key": 100,
                        "name": "Produits hygiène conditionnés"
                    }
                ]
            },
            {
                "accCode": 70780002,
                "accName": "PRODUITS D'ENTRETIEN",
                "refPrefix": "ENT",
                "subCatList":
                [
                    {
                        "key": 97,
                        "name": "Produits d’entretien conditionnés"
                    }
                ]
            },
            {
                "accCode": 70780003,
                "accName": "DROGUERIE",
                "refPrefix": "DRO",
                "subCatList":
                [
                    {
                        "key": 87,
                        "name": "Cartons et sachets réglementaires"
                    },
                    {
                        "key": 89,
                        "name": "Divers droguerie"
                    },
                    {
                        "key": 90,
                        "name": "Droguerie cuisine"
                    },
                    {
                        "key": 93,
                        "name": "Fournitures"
                    },
                    {
                        "key": 105,
                        "name": "Ustensiles cuisine"
                    }
                ]
            },
            {
                "accCode": 70780004,
                "accName": "SANTE",
                "refPrefix": "SAN",
                "subCatList":
                [
                    {
                        "key": 96,
                        "name": "Pharmacie"
                    }
                ]
            },
            {
                "accCode": 70780011,
                "accName": "PRODUITS PÉRIODIQUES FÉMININ",
                "refPrefix": "HYG",
                "subCatList":
                [
                    {
                        "key": 103,
                        "name": "Protections hygiéniques jetables"
                    },
                    {
                        "key": 104,
                        "name": "Protections hygiéniques réutilisables"
                    }
                ]
            },
            {
                "accCode": 70780031,
                "accName": "GRAINES 10%",
                "refPrefix": "JAR",
                "subCatList": []
            }
        ]
    },
    {
        "key": 3,
        "name": "Épicerie Salée",
        "sectionList":
        [
            {
                "accCode": 70740001,
                "accName": "EPICERIE SALEE",
                "refPrefix": "SAL",
                "subCatList": 
                [
                    {
                        "key": 1,
                        "name": "Aides culinaires conditionnées"
                    },
                    {
                        "key": 3,
                        "name": "Algues séchées conditionnées"
                    },
                    {
                        "key": 5,
                        "name": "Céréales diverses conditionnées"
                    },
                    {
                        "key": 7,
                        "name": "Chips et biscuits apéritifs"
                    },
                    {
                        "key": 8,
                        "name": "Condiments et sauces conditionnés"
                    },
                    {
                        "key": 10,
                        "name": "Conserves de légumes"
                    },
                    {
                        "key": 11,
                        "name": "Conserves de poisson"
                    },
                    {
                        "key": 12,
                        "name": "Conserves de viande"
                    },
                    {
                        "key": 13,
                        "name": "Épices"
                    },
                    {
                        "key": 14,
                        "name": "Fruits à coque conditionnés"
                    },
                    {
                        "key": 18,
                        "name": "Herbes séchées"
                    },
                    {
                        "key": 19,
                        "name": "Huiles conditionnées"
                    },
                    {
                        "key": 21,
                        "name": "Légumineuses conditionnées"
                    },
                    {
                        "key": 24,
                        "name": "Mélanges épices"
                    },
                    {
                        "key": 25,
                        "name": "Pâtes sèches conditionnées"
                    },
                    {
                        "key": 27,
                        "name": "Plats préparés"
                    },
                    {
                        "key": 28,
                        "name": "Riz conditionné"
                    },
                    {
                        "key": 30,
                        "name": "Sauces tomates et dérivés"
                    },
                    {
                        "key": 31,
                        "name": "Sels et Poivres"
                    },
                    {
                        "key": 32,
                        "name": "Soupes préparées"
                    },
                    {
                        "key": 33,
                        "name": "Spécialités végétales"
                    },
                    {
                        "key": 34,
                        "name": "Tartinables salés"
                    },
                    {
                        "key": 35,
                        "name": "Vinaigres conditionnés"
                    }
                ]
            }
        ]
    },
    {
        "key": 4,
        "name": "Épicerie Sucrée",
        "sectionList":
        [
            {
                "accCode": 70740002,
                "accName": "EPICERIE SUCREE",
                "refPrefix": "SUC",
                "subCatList":
                [
                    {
                        "key": 38,
                        "name": "Aides à la pâtisserie"
                    },
                    {
                        "key": 39,
                        "name": "Barres de céréales"
                    },
                    {
                        "key": 40,
                        "name": "Biscuits conditionnés bio"
                    },
                    {
                        "key": 41,
                        "name": "Biscuits conditionnés conventionnel"
                    },
                    {
                        "key": 43,
                        "name": "Cafés conditionnés"
                    },
                    {
                        "key": 45,
                        "name": "Céréales petit déjeuner conditionnées"
                    },
                    {
                        "key": 50,
                        "name": "Compotes"
                    },
                    {
                        "key": 53,
                        "name": "Confitures"
                    },
                    {
                        "key": 54,
                        "name": "Farines"
                    },
                    {
                        "key": 55,
                        "name": "Galettes de céréales & tartines"
                    },
                    {
                        "key": 56,
                        "name": "Gâteaux"
                    },
                    {
                        "key": 57,
                        "name": "Infusions"
                    },
                    {
                        "key": 58,
                        "name": "Miel"
                    },
                    {
                        "key": 60,
                        "name": "Sucre conditionné"
                    },
                    {
                        "key": 63,
                        "name": "Thé conditionné"
                    }
                ]
            },
            {
                "accCode": 70740012,
                "accName": "CHOCOLATS / CONFISERIE TVA 20%",
                "refPrefix": "SUC",
                "subCatList":
                [
                    {
                        "key": 47,
                        "name": "Chocolat dégustation"
                    },
                    {
                        "key": 48,
                        "name": "Chocolat en poudre"
                    },
                    {
                        "key": 51,
                        "name": "Confiseries conditionnées"
                    }
                ]
            }
        ]
    },
    {
        "key": 5,
        "name": "Frais",
        "sectionList":
        [
            {
                "accCode": 70730001,
                "accName": "VIANDES",
                "refPrefix": "VIA",
                "subCatList":
                [
                    {
                        "key": 130,
                        "name": "Viande de bœuf"
                    }
                ]
            },
            {
                "accCode": 70730002,
                "accName": "VOLAILLE",
                "refPrefix": "VOL",
                "subCatList":
                [
                    {
                        "key": 131,
                        "name": "Volaille"
                    }
                ]
            },
            {
                "accCode": 70730003,
                "accName": "CHARCUTERIE",
                "refPrefix": "CHAR",
                "subCatList":
                [
                    {
                        "key": 115,
                        "name": "Charcuterie et salaisons"
                    }
                ]
            },
            {
                "accCode": 70750001,
                "accName": "PRODUITS FRAIS",
                "refPrefix": "FRA",
                "subCatList":
                [
                    {
                        "key": 112,
                        "name": "Apéros frais"
                    },
                    {
                        "key": 119,
                        "name": "Desserts frais"
                    },
                    {
                        "key": 128,
                        "name": "Oeufs"
                    },
                    {
                        "key": 129,
                        "name": "Pâtes à dérouler"
                    }
                ]
            },
            {
                "accCode": 70720002,
                "accName": "PRODUITS LAITIERS ET ASSIMILES",
                "refPrefix": "FRA",
                "subCatList":
                [
                    {
                        "key": 114,
                        "name": "Beurre"
                    },
                    {
                        "key": 116,
                        "name": "Crème"
                    },
                    {
                        "key": 117,
                        "name": "Crèmerie Trahon Bihan"
                    },
                    {
                        "key": 118,
                        "name": "Crèmes dessert"
                    },
                    {
                        "key": 126,
                        "name": "Lait frais"
                    },
                    {
                        "key": 127,
                        "name": "Lait longue conservation"
                    },
                    {
                        "key": 132,
                        "name": "Yaourts bio"
                    },
                    {
                        "key": 133,
                        "name": "Yaourts conventionnels"
                    }
                ]
            },
            {
                "accCode": 70720001,
                "accName": "FROMAGE",
                "refPrefix": "FRO",
                "subCatList":
                [
                    {
                        "key": 113,
                        "name": "Autres fromages"
                    },
                    {
                        "key": 120,
                        "name": "Fromages à pâte dure"
                    },
                    {
                        "key": 121,
                        "name": "Fromages à pâte molle"
                    },
                    {
                        "key": 122,
                        "name": "Fromages à pâte persillée"
                    },
                    {
                        "key": 123,
                        "name": "Fromages artisanaux locaux"
                    },
                    {
                        "key": 124,
                        "name": "Fromages frais"
                    },
                    {
                        "key": 125,
                        "name": "Fromages râpés"
                    }
                ]
            },
            {
                "accCode": 70770001,
                "accName": "POISSON",
                "refPrefix": "POI",
                "subCatList": []
            }
        ]
    },
    {
        "key": 6,
        "name": "Pain",
        "sectionList":
        [
            {
                "accCode": 70740003,
                "accName": "PAIN",
                "refPrefix": "PAI",
                "subCatList":
                [
                    {
                        "key": 107,
                        "name": "Pain Canevet"
                    },
                    {
                        "key": 108,
                        "name": "Pain Babel"
                    },
                    {
                        "key": 109,
                        "name": "Crêperie"
                    },
                    {
                        "key": 110,
                        "name": "Pains conditionnés"
                    }
                ]
            }
        ]
    },
    {
        "key": 9,
        "name": "Autre",
        "sectionList":
        [
            {
                "accCode": 70700009,
                "accName": "AUTRES",
                "refPrefix": "AUT",
                "subCatList":
                [
                    {
                        "key": 145,
                        "name": "Contenants"
                    }
                ]
            }
        ]
    }
]
